{
  "$schema": "https://raw.githubusercontent.com/Azure/azure-devtestlab/master/schemas/2015-01-01/dtlArtifacts.json",
  "title": "Create a Domain Controller",
  "description": "Create Domain Controller for Lab",
  "iconUri": "https://chocolatey.org/content/packageimages/WindowsAzurePowershell.0.9.7.png",
  "targetOsType": "Windows",
  "parameters": {
    "DCPassword": {
      "type": "string",
      "displayName": "Domain Admin Password",
      "description": "Type the password used for the Domain Admin Account"
    },
    "DomainNetbios": {
      "type": "string",
      "displayName": "Netbios Domain Name",
      "description": "Type the Netbios Domain Name for the Active Directory (e.g. fabrikam)"
    },
      "DomainFQDN": {
      "type": "string",
      "displayName": "Domain FQDN",
      "description": "Type the Active Directory FQDN (e.g. fabrikam.intra)"
    }  
  
  },
  "runCommand": {
    "commandToExecute": "[concat('powershell.exe -executionpolicy bypass -File InstallDC.ps1',' -DCPassword ', parameters('DCPassword'), ' -NetBiosName ', parameters(DomainNetbios), ' -DomainFqdn ', parameters(DomainFQDN)" 
  }
}